All	1
TRG+Basic dilep	0.49887
1 ele	0.497349
1 mu	0.491272
OS	0.488532
2 jets	0.250858
HT>120	0.250858
Mll>15	0.249821
Channel	0.249821
noTruth	0.249821
no good bparton	0.249779
jet-b match	0.249779
jet-bbar match	0.189523
bbar match	0.142189
	0.142189
