All	1
TRG+Basic dilep	0.502352
1 ele	0.500712
1 mu	0.49532
OS	0.492842
2 jets	0.246347
HT>120	0.246343
Mll>15	0.245114
Channel	0.245114
noTruth	0.245114
no good bparton	0.245045
jet-b match	0.245045
jet-bbar match	0.182875
bbar match	0.136156
	0.136156
	
